…
sample.xlsx                             [ <=>                                                                ] 199.18K  1.23MB/s    in 0.2s

2024-02-06 20:32:39 (1.23 MB/s) - ‘sample.xlsx’ へ保存終了 [203957]
```

Excel シートのインポート

```
D SELECT * FROM st_read('../../tmp/load/sample.xlsx');
┌──────────────────┬────────────┬──────────────┬──────────────┬───┬──────────────────────┬────────────────────┬─────────┬──────────────────┐
│      Field1      │   Field2   │    Field3    │    Field4    │ … │        Field6        │       Field7       │ Field8  │      Field9      │
│     varchar      │  varchar   │   varchar    │   varchar    │   │       varchar        │      varchar       │ varchar │     varchar      │
├──────────────────┼────────────┼──────────────┼──────────────┼───┼──────────────────────┼────────────────────┼─────────┼──────────────────┤
│ 登録日トウロクビ │ ユーザーID │ 名前ナマエ   │ 性別セイベツ │ … │ 利用金額リヨウキン…  │ 誕生日タンジョウビ │         │                  │
│ entrydate        │ userid     │ name         │ seibetsu     │ … │ totalmoney           │ birthday           │         │ 基準日キジュンビ │
│ 1905/07/12       │ OD77412    │ オソミハ     │ men          │ … │ 52000                │ 1905/06/10         │         │ 2020/08/05       │
│ 1905/07/11       │ QS19455    │ トムアシテキ │ men          │ … │ 59000                │ 1905/05/02         │         │                  │
│ 1905/07/11       │ HY60274    │ オンウ       │ men          │ … │ 71000                │ 1905/05/19         │         │                  │
│ 1905/07/12       │ TA49387    │ レコスソニ   │ men          │ … │ 63000                │ 1905/04/23         │         │                  │
│ 1905/07/11       │ PK56576    │ コミトハム   │ men          │ … │ 87000                │ 1905/04/22         │         │                  │
│ 1905/07/11       │ ZJ39522    │ ヘフテイキ   │ men          │ … │ 24000                │ 1905/06/09         │         │                  │
│ 1905/07/11       │ YW53474    │ ヤヲハラフ   │ men          │ … │ 18000                │ 1905/05/14         │         │                  │
│ 1905/07/12       │ YJ12191    │ セレヤヒル   │ women        │ … │ 45000                │ 1905/04/21         │         │                  │
│ 1905/07/12       │ FG18898    │ クワチシ     │ women        │ … │ 18000                │ 1905/05/08         │         │                  │
│ 1905/07/11       │ WC58285    │ ヌヨユノミン │ men          │ … │ 99000                │ 1905/05/22         │         │                  │
│ 1905/07/12       │ OG30413    │ ネテ         │ men          │ … │ 90000                │ 1905/05/30         │         │                  │
│ 1905/07/11       │ HQ81381    │ テソノ       │ men          │ … │ 62000                │ 1905/05/24         │         │                  │
│ 1905/07/12       │ MM62525    │ チフン       │ women        │ … │ 60000                │ 1905/05/25         │         │                  │
│ 1905/07/12       │ VT80396    │ ノヘフネニ   │ men          │ … │ 50000                │ 1905/05/23         │         │                  │
│ 1905/07/11       │ BT12011    │ イワヌヤウワ │ men          │ … │ 95000                │ 1905/05/12         │         │                  │
│ 1905/07/12       │ DG44874    │ ノヌヘ       │ men          │ … │ 91000                │ 1905/05/12         │         │                  │
│ 1905/07/11       │ NX23141    │ ノサスムン   │ men          │ … │ 6000                 │ 1905/05/22         │         │                  │
│ 1905/07/12       │ KY48305    │ テナロヒハ   │ men          │ … │ 98000                │ 1905/05/05         │         │                  │
│     ·            │    ·       │    ·         │  ·           │ · │   ·                  │     ·              │    ·    │        ·         │
│     ·            │    ·       │    ·         │  ·           │ · │   ·                  │     ·              │    ·    │        ·         │
│     ·            │    ·       │    ·         │  ·           │ · │   ·                  │     ·              │    ·    │        ·         │
│ 1905/07/12       │ XD25401    │ ユラハユ     │ men          │ … │ 93000                │ 1905/04/29         │         │                  │
│ 1905/07/11       │ GU76667    │ シウカアセ   │ women        │ … │ 56000                │ 1905/05/14         │         │                  │
│ 1905/07/12       │ BQ53705    │ マシ         │ women        │ … │ 82000                │ 1905/05/04         │         │                  │
│ 1905/07/11       │ FM33490    │ リキフウ     │ men          │ … │ 76000                │ 1905/06/01         │         │                  │
│ 1905/07/12       │ RV41434    │ ルンチヘナ   │ women        │ … │ 66000                │ 1905/05/24         │         │                  │
│ 1905/07/12       │ TG78218    │ ルミムモホヌ │ women        │ … │ 76000                │ 1905/05/27         │         │                  │
│ 1905/07/12       │ AT86514    │ ニツソレヌ   │ men          │ … │ 76000                │ 1905/05/13         │         │                  │
│ 1905/07/11       │ RP89813    │ ハニロノ     │ women        │ … │ 33000                │ 1905/05/09         │         │                  │
│ 1905/07/12       │ TR68946    │ ンヲミルチ   │ men          │ … │ 26000                │ 1905/06/08         │         │                  │
│ 1905/07/11       │ CJ79326    │ アオサソ     │ men          │ … │ 50000                │ 1905/05/15         │         │                  │
│ 1905/07/12       │ TO19429    │ セホソレト   │ men          │ … │ 50000                │ 1905/06/02         │         │                  │
│ 1905/07/12       │ EX79908    │ ナメチラタヒ │ men          │ … │ 75000                │ 1905/05/04         │         │                  │
│ 1905/07/11       │ VX95673    │ ヒフ         │ women        │ … │ 32000                │ 1905/04/26         │         │                  │
│ 1905/07/12       │ ZT79232    │ ソキサヌ     │ women        │ … │ 12000                │ 1905/05/31         │         │                  │
│ 1905/07/12       │ YP74864    │ タヌ         │ women        │ … │ 81000                │ 1905/05/01         │         │                  │
│ 1905/07/11       │ GF97839    │ ソハンヲ     │ women        │ … │ 20000                │ 1905/04/23         │         │                  │
│ 1905/07/11       │ CQ74870    │ ワエ         │ men          │ … │ 81000                │ 1905/05/07         │         │                  │
│ 1905/07/11       │ LC41081    │ イミオマチワ │ women        │ … │ 78000                │ 1905/05/14         │         │                  │
│ 1905/07/11       │ QL31417    │ ミノヒテホテ │ women        │ … │ 23000                │ 1905/05/07         │         │                  │
│ 1905/07/12       │ AU19486    │ モチシタロ   │ women        │ … │ 8000                 │ 1905/06/02         │         │                  │
├──────────────────┴────────────┴──────────────┴──────────────┴───┴──────────────────────┴────────────────────┴─────────┴──────────────────┤
│ 1001 rows (40 shown)                                                                                                 9 columns (8 shown) │
└──────────────────────────────────────────────────────────────────────────────────────────────────────────────────────────────────────────┘
```

Excel ワークシートの名前を指定

```
D SELECT * FROM st_read('../../tmp/load/sample.xlsx',layer='カタカナランダム');
┌─────────┬──────────────┬──────────────┬─────────┬─────────┬─────────┬─────────┬─────────┬─────────┬─────────┬─────────┬──────────┬──────────┐
│ Field1  │    Field2    │    Field3    │ Field4  │ Field5  │ Field6  │ Field7  │ Field8  │ Field9  │ Field10 │ Field11 │ Field12  │ Field13  │
│ varchar │   varchar    │   varchar    │ varchar │ varchar │ varchar │ varchar │ varchar │ varchar │ varchar │ varchar │ varchar  │ varchar  │
├─────────┼──────────────┼──────────────┼─────────┼─────────┼─────────┼─────────┼─────────┼─────────┼─────────┼─────────┼──────────┼──────────┤
│ No      │ Name         │ ALL          │ 1       │ 2       │ 3       │ 4       │ 5       │ 6       │         │         │ カタカナ │ カタカナ │
│ 1       │ サレ         │ サレヘルトン │ サ      │ レ      │ ヘ      │ ル      │ ト      │ ン      │         │         │ 1        │ ア       │
│ 2       │ シヌヲヘフ   │ シヌヲヘフニ │ シ      │ ヌ      │ ヲ      │ ヘ      │ フ      │ ニ      │         │         │ 2        │ イ       │
│ 3       │ オソミハ     │ オソミハケム │ オ      │ ソ      │ ミ      │ ハ      │ ケ      │ ム      │         │         │ 3        │ ウ       │
│ 4       │ トムアシテキ │ トムアシテキ │ ト      │ ム      │ ア      │ シ      │ テ      │ キ      │         │         │ 4        │ エ       │
│ 5       │ オンウ       │ オンウルハコ │ オ      │ ン      │ ウ      │ ル      │ ハ      │ コ      │         │         │ 5        │ オ       │
│ 6       │ レコスソニ   │ レコスソニキ │ レ      │ コ      │ ス      │ ソ      │ ニ      │ キ      │         │         │ 6        │ カ       │
│ 7       │ コミトハム   │ コミトハムヌ │ コ      │ ミ      │ ト      │ ハ      │ ム      │ ヌ      │         │         │ 7        │ キ       │
│ 8       │ ヘフテイキ   │ ヘフテイキス │ ヘ      │ フ      │ テ      │ イ      │ キ      │ ス      │         │         │ 8        │ ク       │
│ 9       │ ヤヲハラフ   │ ヤヲハラフハ │ ヤ      │ ヲ      │ ハ      │ ラ      │ フ      │ ハ      │         │         │ 9        │ ケ       │
│ 10      │ セレヤヒル   │ セレヤヒルフ │ セ      │ レ      │ ヤ      │ ヒ      │ ル      │ フ      │         │         │ 10       │ コ       │
│ 11      │ クワチシ     │ クワチシコエ │ ク      │ ワ      │ チ      │ シ      │ コ      │ エ      │         │         │ 11       │ サ       │
│ 12      │ ヌヨユノミン │ ヌヨユノミン │ ヌ      │ ヨ      │ ユ      │ ノ      │ ミ      │ ン      │         │         │ 12       │ シ       │
│ 13      │ ネテ         │ ネテンオセメ │ ネ      │ テ      │ ン      │ オ      │ セ      │ メ      │         │         │ 13       │ ス       │
│ 14      │ テソノ       │ テソノソコモ │ テ      │ ソ      │ ノ      │ ソ      │ コ      │ モ      │         │         │ 14       │ セ       │
│ 15      │ チフン       │ チフンスヨシ │ チ      │ フ      │ ン      │ ス      │ ヨ      │ シ      │         │         │ 15       │ ソ       │
│ 16      │ ノヘフネニ   │ ノヘフネニケ │ ノ      │ ヘ      │ フ      │ ネ      │ ニ      │ ケ      │         │         │ 16       │ タ       │
│ 17      │ イワヌヤウワ │ イワヌヤウワ │ イ      │ ワ      │ ヌ      │ ヤ      │ ウ      │ ワ      │         │         │ 17       │ チ       │
│ 18      │ ノヌヘ       │ ノヌヘタツカ │ ノ      │ ヌ      │ ヘ      │ タ      │ ツ      │ カ      │         │         │ 18       │ ツ       │
│ 19      │ ノサスムン   │ ノサスムンロ │ ノ      │ サ      │ ス      │ ム      │ ン      │ ロ      │         │         │ 19       │ テ       │
│ ·       │    ·         │      ·       │ ·       │ ·       │ ·       │ ·       │ ·       │ ·       │    ·    │    ·    │ ·        │ ·        │
│ ·       │    ·         │      ·       │ ·       │ ·       │ ·       │ ·       │ ·       │ ·       │    ·    │    ·    │ ·        │ ·        │
│ ·       │    ·         │      ·       │ ·       │ ·       │ ·       │ ·       │ ·       │ ·       │    ·    │    ·    │ ·        │ ·        │
│ 982     │ ユラハユ     │ ユラハユニヒ │ ユ      │ ラ      │ ハ      │ ユ      │ ニ      │ ヒ      │         │         │          │          │
│ 983     │ シウカアセ   │ シウカアセク │ シ      │ ウ      │ カ      │ ア      │ セ      │ ク      │         │         │          │          │
│ 984     │ マシ         │ マシメクフヲ │ マ      │ シ      │ メ      │ ク      │ フ      │ ヲ      │         │         │          │          │
│ 985     │ リキフウ     │ リキフウイラ │ リ      │ キ      │ フ      │ ウ      │ イ      │ ラ      │         │         │          │          │
│ 986     │ ルンチヘナ   │ ルンチヘナナ │ ル      │ ン      │ チ      │ ヘ      │ ナ      │ ナ      │         │         │          │          │
│ 987     │ ルミムモホヌ │ ルミムモホヌ │ ル      │ ミ      │ ム      │ モ      │ ホ      │ ヌ      │         │         │          │          │
│ 988     │ ニツソレヌ   │ ニツソレヌユ │ ニ      │ ツ      │ ソ      │ レ      │ ヌ      │ ユ      │         │         │          │          │
│ 989     │ ハニロノ     │ ハニロノリメ │ ハ      │ ニ      │ ロ      │ ノ      │ リ      │ メ      │         │         │          │          │
│ 990     │ ンヲミルチ   │ ンヲミルチソ │ ン      │ ヲ      │ ミ      │ ル      │ チ      │ ソ      │         │         │          │          │
│ 991     │ アオサソ     │ アオサソルイ │ ア      │ オ      │ サ      │ ソ      │ ル      │ イ      │         │         │          │          │
│ 992     │ セホソレト   │ セホソレトレ │ セ      │ ホ      │ ソ      │ レ      │ ト      │ レ      │         │         │          │          │
│ 993     │ ナメチラタヒ │ ナメチラタヒ │ ナ      │ メ      │ チ      │ ラ      │ タ      │ ヒ      │         │         │          │          │
│ 994     │ ヒフ         │ ヒフニラヲキ │ ヒ      │ フ      │ ニ      │ ラ      │ ヲ      │ キ      │         │         │          │          │
│ 995     │ ソキサヌ     │ ソキサヌトヲ │ ソ      │ キ      │ サ      │ ヌ      │ ト      │ ヲ      │         │         │          │          │
│ 996     │ タヌ         │ タヌンリハミ │ タ      │ ヌ      │ ン      │ リ      │ ハ      │ ミ      │         │         │          │          │
│ 997     │ ソハンヲ     │ ソハンヲヘミ │ ソ      │ ハ      │ ン      │ ヲ      │ ヘ      │ ミ      │         │         │          │          │
│ 998     │ ワエ         │ ワエアヘンリ │ ワ      │ エ      │ ア      │ ヘ      │ ン      │ リ      │         │         │          │          │
│ 999     │ イミオマチワ │ イミオマチワ │ イ      │ ミ      │ オ      │ マ      │ チ      │ ワ      │         │         │          │          │
│ 1000    │ ミノヒテホテ │ ミノヒテホテ │ ミ      │ ノ      │ ヒ      │ テ      │ ホ      │ テ      │         │         │          │          │
│ 1001    │ モチシタロ   │ モチシタロヨ │ モ      │ チ      │ シ      │ タ      │ ロ      │ ヨ      │         │         │          │          │
├─────────┴──────────────┴──────────────┴─────────┴─────────┴─────────┴─────────┴─────────┴─────────┴─────────┴─────────┴──────────┴──────────┤
│ 1002 rows (40 shown)                                                                                                             13 columns │
└─────────────────────────────────────────────────────────────────────────────────────────────────────────────────────────────────────────────┘
```
…
